+ id
uid=1002(alibo) gid=1002(alibo) groups=1002(alibo)
+ date
Thu Jan  5 11:09:10 CET 2023
+ date -R
Thu, 05 Jan 2023 11:09:10 +0100
+ nmcli
host0: connected to Wired connection 1
	"host0"
	ethernet (veth), EE:24:7D:83:74:F7, sw, mtu 1500
	ip4 default
	inet4 10.0.31.100/8
	route4 0.0.0.0/0
	route4 10.0.0.0/8
	inet6 fe80::f0f4:88a2:9cc2:cba1/64
	route6 fe80::/64

lo: unmanaged
	"lo"
	loopback (unknown), 00:00:00:00:00:00, sw, mtu 65536

DNS configuration:
	servers: 10.0.2.2
	domains: intern
	interface: host0

Use "nmcli device show" to get complete information about known devices and
"nmcli connection show" to get an overview on active connection profiles.

Consult nmcli(1) and nmcli-examples(7) manual pages for complete usage details.
+ systemctl status --no-pager
● hyt0
    State: running
     Jobs: 0 queued
   Failed: 0 units
    Since: Thu 2023-01-05 08:55:12 CET; 2h 13min ago
   CGroup: /
           ├─user.slice 
           │ ├─user-1002.slice 
           │ │ ├─session-c10.scope 
           │ │ │ ├─1086 sshd: alibo [priv]
           │ │ │ ├─1099 sshd: alibo@pts/2
           │ │ │ ├─1100 -bash
           │ │ │ ├─1103 /bin/bash ./301bilan.sh
           │ │ │ └─1111 systemctl status --no-pager
           │ │ └─user@1002.service 
           │ │   └─init.scope 
           │ │     ├─1089 /lib/systemd/systemd --user
           │ │     └─1090 (sd-pam)
           │ └─user-0.slice 
           │   ├─session-c5.scope 
           │   │ ├─925 /bin/bash -l
           │   │ └─933 (sd-
           │   └─user@0.service 
           │     └─init.scope 
           │       ├─927 /lib/systemd/systemd --user
           │       └─928 (sd-pam)
           ├─init.scope 
           │ └─1 /lib/systemd/systemd
           └─system.slice 
             ├─apache2.service 
             │ ├─94 /usr/sbin/apache2 -k start
             │ ├─95 /usr/sbin/apache2 -k start
             │ └─96 /usr/sbin/apache2 -k start
             ├─cron.service 
             │ └─49 /usr/sbin/cron -f
             ├─wpa_supplicant.service 
             │ └─54 /sbin/wpa_supplicant -u -s -O /run/wpa_supplicant
             ├─systemd-journald.service 
             │ └─15 /lib/systemd/systemd-journald
             ├─ssh.service 
             │ └─89 sshd: /usr/sbin/sshd -D [listener] 0 of 10-100 startups
             ├─NetworkManager.service 
             │ └─51 /usr/sbin/NetworkManager --no-daemon
             ├─rsyslog.service 
             │ └─52 /usr/sbin/rsyslogd -n -iNONE
             ├─console-getty.service 
             │ └─75 /sbin/agetty -o -p -- \u --noclear --keep-baud console 115200,38400,9600 vt220
             ├─dbus.service 
             │ └─50 /usr/bin/dbus-daemon --system --address=systemd: --nofork --nopidfile --systemd-activation --syslog-only
             └─systemd-logind.service 
               └─53 /lib/systemd/systemd-logind
+ journalctl --boot --no-pager
[0;1;39mHint: You are currently not seeing messages from other users and the system.[0m
[0;1;39m      Users in groups 'adm', 'systemd-journal' can see all messages.[0m
[0;1;39m      Pass -q to turn off this notice.[0m
-- Journal begins at Thu 2022-12-08 12:18:48 CET, ends at Thu 2023-01-05 11:09:02 CET. --
Jan 05 09:06:05 hyt0 systemd[777]: Queued start job for default target Main User Target.
Jan 05 09:06:05 hyt0 systemd[777]: Reached target Paths.
Jan 05 09:06:05 hyt0 systemd[777]: Reached target Sockets.
Jan 05 09:06:05 hyt0 systemd[777]: Reached target Timers.
Jan 05 09:06:05 hyt0 systemd[777]: Reached target Basic System.
Jan 05 09:06:05 hyt0 systemd[777]: Reached target Main User Target.
Jan 05 09:06:05 hyt0 systemd[777]: Startup finished in 23ms.
Jan 05 09:26:42 hyt0 systemd[777]: Stopped target Main User Target.
Jan 05 09:26:42 hyt0 systemd[777]: Stopped target Basic System.
Jan 05 09:26:42 hyt0 systemd[778]: pam_unix(systemd-user:session): session closed for user alibo
Jan 05 09:26:42 hyt0 systemd[777]: Stopped target Paths.
Jan 05 09:26:42 hyt0 systemd[777]: Stopped target Sockets.
Jan 05 09:26:42 hyt0 systemd[777]: Reached target Shutdown.
Jan 05 09:26:42 hyt0 systemd[777]: Stopped target Timers.
Jan 05 09:26:42 hyt0 systemd[777]: systemd-exit.service: Succeeded.
Jan 05 09:26:42 hyt0 systemd[777]: Finished Exit the Session.
Jan 05 09:26:42 hyt0 systemd[777]: Reached target Exit the Session.
Jan 05 11:01:21 hyt0 systemd[1009]: Queued start job for default target Main User Target.
Jan 05 11:01:21 hyt0 systemd[1009]: Reached target Paths.
Jan 05 11:01:21 hyt0 systemd[1009]: Reached target Sockets.
Jan 05 11:01:21 hyt0 systemd[1009]: Reached target Timers.
Jan 05 11:01:21 hyt0 systemd[1009]: Reached target Basic System.
Jan 05 11:01:21 hyt0 systemd[1009]: Reached target Main User Target.
Jan 05 11:01:21 hyt0 systemd[1009]: Startup finished in 24ms.
Jan 05 11:01:27 hyt0 sshd[1019]: Received disconnect from 10.0.30.67 port 39692:11: disconnected by user
Jan 05 11:01:27 hyt0 sshd[1019]: Disconnected from user alibo 10.0.30.67 port 39692
Jan 05 11:01:37 hyt0 systemd[1009]: Stopped target Main User Target.
Jan 05 11:01:37 hyt0 systemd[1009]: Stopped target Basic System.
Jan 05 11:01:37 hyt0 systemd[1009]: Stopped target Paths.
Jan 05 11:01:37 hyt0 systemd[1009]: Stopped target Sockets.
Jan 05 11:01:37 hyt0 systemd[1009]: Reached target Shutdown.
Jan 05 11:01:37 hyt0 systemd[1009]: Stopped target Timers.
Jan 05 11:01:37 hyt0 systemd[1009]: systemd-exit.service: Succeeded.
Jan 05 11:01:37 hyt0 systemd[1009]: Finished Exit the Session.
Jan 05 11:01:37 hyt0 systemd[1009]: Reached target Exit the Session.
Jan 05 11:01:37 hyt0 systemd[1010]: pam_unix(systemd-user:session): session closed for user alibo
Jan 05 11:01:49 hyt0 systemd[1029]: Queued start job for default target Main User Target.
Jan 05 11:01:49 hyt0 systemd[1029]: Reached target Paths.
Jan 05 11:01:49 hyt0 systemd[1029]: Reached target Sockets.
Jan 05 11:01:49 hyt0 systemd[1029]: Reached target Timers.
Jan 05 11:01:49 hyt0 systemd[1029]: Reached target Basic System.
Jan 05 11:01:49 hyt0 systemd[1029]: Reached target Main User Target.
Jan 05 11:01:49 hyt0 systemd[1029]: Startup finished in 26ms.
Jan 05 11:01:49 hyt0 sshd[1039]: Received disconnect from 10.0.30.67 port 36660:11: disconnected by user
Jan 05 11:01:49 hyt0 sshd[1039]: Disconnected from user alibo 10.0.30.67 port 36660
Jan 05 11:02:00 hyt0 systemd[1029]: Stopped target Main User Target.
Jan 05 11:02:00 hyt0 systemd[1029]: Stopped target Basic System.
Jan 05 11:02:00 hyt0 systemd[1029]: Stopped target Paths.
Jan 05 11:02:00 hyt0 systemd[1029]: Stopped target Sockets.
Jan 05 11:02:00 hyt0 systemd[1029]: Reached target Shutdown.
Jan 05 11:02:00 hyt0 systemd[1029]: Stopped target Timers.
Jan 05 11:02:00 hyt0 systemd[1029]: systemd-exit.service: Succeeded.
Jan 05 11:02:00 hyt0 systemd[1029]: Finished Exit the Session.
Jan 05 11:02:00 hyt0 systemd[1029]: Reached target Exit the Session.
Jan 05 11:02:00 hyt0 systemd[1030]: pam_unix(systemd-user:session): session closed for user alibo
Jan 05 11:02:08 hyt0 systemd[1046]: Queued start job for default target Main User Target.
Jan 05 11:02:08 hyt0 systemd[1046]: Reached target Paths.
Jan 05 11:02:08 hyt0 systemd[1046]: Reached target Sockets.
Jan 05 11:02:08 hyt0 systemd[1046]: Reached target Timers.
Jan 05 11:02:08 hyt0 systemd[1046]: Reached target Basic System.
Jan 05 11:02:08 hyt0 systemd[1046]: Reached target Main User Target.
Jan 05 11:02:08 hyt0 systemd[1046]: Startup finished in 23ms.
Jan 05 11:03:04 hyt0 sshd[1056]: Received disconnect from 10.0.30.67 port 47556:11: disconnected by user
Jan 05 11:03:04 hyt0 sshd[1056]: Disconnected from user alibo 10.0.30.67 port 47556
Jan 05 11:03:14 hyt0 systemd[1046]: Stopped target Main User Target.
Jan 05 11:03:14 hyt0 systemd[1046]: Stopped target Basic System.
Jan 05 11:03:14 hyt0 systemd[1046]: Stopped target Paths.
Jan 05 11:03:14 hyt0 systemd[1046]: Stopped target Sockets.
Jan 05 11:03:14 hyt0 systemd[1046]: Reached target Shutdown.
Jan 05 11:03:14 hyt0 systemd[1046]: Stopped target Timers.
Jan 05 11:03:14 hyt0 systemd[1046]: systemd-exit.service: Succeeded.
Jan 05 11:03:14 hyt0 systemd[1046]: Finished Exit the Session.
Jan 05 11:03:14 hyt0 systemd[1046]: Reached target Exit the Session.
Jan 05 11:03:14 hyt0 systemd[1047]: pam_unix(systemd-user:session): session closed for user alibo
Jan 05 11:08:17 hyt0 systemd[1073]: Queued start job for default target Main User Target.
Jan 05 11:08:17 hyt0 systemd[1073]: Reached target Paths.
Jan 05 11:08:17 hyt0 systemd[1073]: Reached target Sockets.
Jan 05 11:08:17 hyt0 systemd[1073]: Reached target Timers.
Jan 05 11:08:17 hyt0 systemd[1073]: Reached target Basic System.
Jan 05 11:08:17 hyt0 systemd[1073]: Reached target Main User Target.
Jan 05 11:08:17 hyt0 systemd[1073]: Startup finished in 29ms.
Jan 05 11:08:17 hyt0 sshd[1083]: Received disconnect from 10.0.30.67 port 39886:11: disconnected by user
Jan 05 11:08:17 hyt0 sshd[1083]: Disconnected from user alibo 10.0.30.67 port 39886
Jan 05 11:08:27 hyt0 systemd[1073]: Stopped target Main User Target.
Jan 05 11:08:27 hyt0 systemd[1073]: Stopped target Basic System.
Jan 05 11:08:27 hyt0 systemd[1073]: Stopped target Paths.
Jan 05 11:08:27 hyt0 systemd[1073]: Stopped target Sockets.
Jan 05 11:08:27 hyt0 systemd[1073]: Reached target Shutdown.
Jan 05 11:08:27 hyt0 systemd[1073]: Stopped target Timers.
Jan 05 11:08:27 hyt0 systemd[1073]: systemd-exit.service: Succeeded.
Jan 05 11:08:27 hyt0 systemd[1073]: Finished Exit the Session.
Jan 05 11:08:27 hyt0 systemd[1073]: Reached target Exit the Session.
Jan 05 11:08:27 hyt0 systemd[1074]: pam_unix(systemd-user:session): session closed for user alibo
Jan 05 11:09:02 hyt0 systemd[1089]: Queued start job for default target Main User Target.
Jan 05 11:09:02 hyt0 systemd[1089]: Reached target Paths.
Jan 05 11:09:02 hyt0 systemd[1089]: Reached target Sockets.
Jan 05 11:09:02 hyt0 systemd[1089]: Reached target Timers.
Jan 05 11:09:02 hyt0 systemd[1089]: Reached target Basic System.
Jan 05 11:09:02 hyt0 systemd[1089]: Reached target Main User Target.
Jan 05 11:09:02 hyt0 systemd[1089]: Startup finished in 28ms.
+ journalctl --boot=-4 --no-pager
[0;1;39mHint: You are currently not seeing messages from other users and the system.[0m
[0;1;39m      Users in groups 'adm', 'systemd-journal' can see all messages.[0m
[0;1;39m      Pass -q to turn off this notice.[0m
[0;1;31mData from the specified boot (-4) is not available: No such boot ID in journal[0m
+ journalctl --list-boots --no-pager
[0;1;39mHint: You are currently not seeing messages from other users and the system.[0m
[0;1;39m      Users in groups 'adm', 'systemd-journal' can see all messages.[0m
[0;1;39m      Pass -q to turn off this notice.[0m
-1 f379a38959f849c8aa998fa1d601a1ea Thu 2022-12-08 12:18:48 CET—Thu 2022-12-08 12:20:10 CET
 0 987100a14b9a4a4098069929babd176c Thu 2023-01-05 09:06:05 CET—Thu 2023-01-05 11:09:02 CET
+ ls -rtlh /var/log
total 616K
drwxr-sr-x+ 4 root systemd-journal 4.0K Nov 24 09:22 journal
drwx------  2 root root            4.0K Nov 24 09:22 private
-rw-r-----  1 root adm              202 Nov 28 14:23 messages.2.gz
-rw-r-----  1 root adm              325 Dec  1 11:17 auth.log.2.gz
-rw-r-----  1 root adm             4.1K Dec  1 12:15 syslog.2.gz
-rw-r-----  1 root adm             3.9K Dec  1 12:15 daemon.log.2.gz
drwxr-xr-x  3 root root            4.0K Dec  8 11:29 runit
-rw-r--r--  1 root root            2.5K Dec  8 11:30 alternatives.log.1
drwxr-x---  2 root adm             4.0K Dec  8 11:30 apache2
-rw-r--r--  1 root root             30K Dec  8 11:30 dpkg.log.1
-rw-rw----  1 root utmp            6.8K Dec  8 12:17 btmp.1
-rw-r-----  1 root adm              26K Dec  8 12:29 auth.log.1
-rw-r-----  1 root adm             152K Jan  5 08:55 syslog.1
-rw-r-----  1 root adm             1.1K Jan  5 08:55 messages.1
-rw-r-----  1 root adm             151K Jan  5 08:55 daemon.log.1
drwxr-xr-x  2 root root            4.0K Jan  5 09:01 apt
-rw-r--r--  1 root root             348 Jan  5 09:01 alternatives.log
-rw-r--r--  1 root root            3.6K Jan  5 09:01 dpkg.log
-rw-r-----  1 root adm              144 Jan  5 09:05 messages
-rw-r--r--  1 root root             32K Jan  5 10:15 faillog
-rw-rw----  1 root utmp             768 Jan  5 11:01 btmp
-rw-r-----  1 root adm              38K Jan  5 11:09 syslog
-rw-r-----  1 root adm              38K Jan  5 11:09 daemon.log
-rw-r-----  1 root adm              12K Jan  5 11:09 auth.log
-rw-rw-r--  1 root utmp             42K Jan  5 11:09 wtmp
-rw-rw-r--  1 root utmp            287K Jan  5 11:09 lastlog
+ tail --lines=12 /var/log/auth.log
tail: cannot open '/var/log/auth.log' for reading: Permission denied
+ ls -rtlh /var/log/apache2
ls: cannot open directory '/var/log/apache2': Permission denied
+ tail --lines=12 /var/log/apache2/access.log
tail: cannot open '/var/log/apache2/access.log' for reading: Permission denied
+ ls -rtlh /var/log/apt
total 28K
-rw-r----- 1 root adm  3.1K Dec  8 11:30 term.log.1.gz
-rw-r--r-- 1 root root  956 Dec  8 11:30 history.log.1.gz
-rw-r--r-- 1 root root  11K Jan  5 09:01 eipp.log.xz
-rw-r----- 1 root adm  2.9K Jan  5 09:01 term.log
-rw-r--r-- 1 root root  333 Jan  5 09:01 history.log
+ grep sudo /etc/group
sudo:x:27:
+ grep adm /etc/group
adm:x:4:
+ ls -rtlh /home/alibo/public_html
total 0
+ stat /home/alibo/public_html
  File: /home/alibo/public_html
  Size: 4096      	Blocks: 8          IO Block: 4096   directory
Device: fe02h/65026d	Inode: 1966836     Links: 2
Access: (0755/drwxr-xr-x)  Uid: ( 1002/   alibo)   Gid: ( 1002/   alibo)
Access: 2023-01-05 11:09:10.310798822 +0100
Modify: 2023-01-05 09:26:17.726633526 +0100
Change: 2023-01-05 09:26:17.726633526 +0100
 Birth: 2023-01-05 09:06:46.278602155 +0100
+ exit 0
